1;S.Joao
1;IPO
1;Faria Guimaraes
1;Trindade
2;Trindade
3;Trindade
4;Trindade
1;Aliados
1;Sao Bento
2;Campanha
3;Campanha
4;Campanha
2;Bolhao
2;Lapa
2;Casa da Musica
3;Bolhao
4;Bolhao
3;Lapa
4;Lapa
3;Casa da Musica
4;Casa da Musica
2;ISMAI
3;Senhor de Matosinhos
4;Vila do Conde
5;Aveiro
